LAB03/LAB03/MUX/simulation/qsim/MUX.msim.vcd
$comment
	File created using the following command:
		vcd file MUX.msim.vcd -direction
$end
$date
	Wed Apr 16 19:05:00 2025
$end
$version
	ModelSim Version 10.1d
$end
$timescale
	1ps
$end
$scope module MUX_vlg_vec_tst $end
$var reg 8 ! A [7:0] $end
$var reg 8 " B [7:0] $end
$var reg 1 # Sel $end
$var wire 1 $ S [7] $end
$var wire 1 % S [6] $end
$var wire 1 & S [5] $end
$var wire 1 ' S [4] $end
$var wire 1 ( S [3] $end
$var wire 1 ) S [2] $end
$var wire 1 * S [1] $end
$var wire 1 + S [0] $end
$var wire 1 , sampler $end
$scope module i1 $end
$var wire 1 - gnd $end
$var wire 1 . vcc $end
$var wire 1 / unknown $end
$var tri1 1 0 devclrn $end
$var tri1 1 1 devpor $end
$var tri1 1 2 devoe $end
$var wire 1 3 S[7]~output_o $end
$var wire 1 4 S[6]~output_o $end
$var wire 1 5 S[5]~output_o $end
$var wire 1 6 S[4]~output_o $end
$var wire 1 7 S[3]~output_o $end
$var wire 1 8 S[2]~output_o $end
$var wire 1 9 S[1]~output_o $end
$var wire 1 : S[0]~output_o $end
$var wire 1 ; B[7]~input_o $end
$var wire 1 < A[7]~input_o $end
$var wire 1 = Sel~input_o $end
$var wire 1 > inst7|inst2~0_combout $end
$var wire 1 ? A[6]~input_o $end
$var wire 1 @ B[6]~input_o $end
$var wire 1 A inst6|inst2~0_combout $end
$var wire 1 B B[5]~input_o $end
$var wire 1 C A[5]~input_o $end
$var wire 1 D inst5|inst2~0_combout $end
$var wire 1 E A[4]~input_o $end
$var wire 1 F B[4]~input_o $end
$var wire 1 G inst4|inst2~0_combout $end
$var wire 1 H B[3]~input_o $end
$var wire 1 I A[3]~input_o $end
$var wire 1 J inst3|inst2~0_combout $end
$var wire 1 K B[2]~input_o $end
$var wire 1 L A[2]~input_o $end
$var wire 1 M inst2|inst2~0_combout $end
$var wire 1 N A[1]~input_o $end
$var wire 1 O B[1]~input_o $end
$var wire 1 P inst1|inst2~0_combout $end
$var wire 1 Q B[0]~input_o $end
$var wire 1 R A[0]~input_o $end
$var wire 1 S inst|inst2~0_combout $end
$upscope $end
$upscope $end
$enddefinitions $end
#0
$dumpvars
b11111111 !
b0 "
0#
x+
x*
x)
x(
x'
x&
x%
x$
x,
0-
1.
x/
10
11
12
x3
x4
x5
x6
x7
x8
x9
x:
0;
1<
0=
x>
1?
0@
xA
0B
1C
xD
1E
0F
xG
0H
1I
xJ
0K
1L
xM
1N
0O
xP
0Q
1R
xS
$end
#3484
1J
#3486
1M
#3488
1S
#3489
1>
#3490
1A
#3491
1D
1G
#3757
1P
#6030
15
1&
#6117
18
1)
#6135
1:
1+
#6414
19
1*
#6447
17
1(
#6482
16
1'
#6492
13
1$
#7343
14
1%
#70000
b1111111 !
b111111 !
b11111 !
b1111 !
b1011 !
b1010 !
0,
#70832
0R
#70842
0?
0C
0E
0L
#70852
0<
#71680
0>
#73801
0D
#74000
0A
#74128
0M
#74231
0G
#74653
0S
#74668
03
0$
#76358
05
0&
#76765
08
0)
#77193
06
0'
#77295
0:
0+
#77934
04
0%
#140000
b10 !
b0 !
b10000000 "
b10100000 "
b10110000 "
b10111000 "
b10111010 "
b10111011 "
1#
1,
#140670
1B
1H
#140680
1F
#140686
1=
1O
#140690
1Q
#140700
1;
#140832
0I
#140842
0N
#143857
1>
#143861
1D
1G
#144078
1S
#146400
15
1&
#146725
1:
1+
#146852
16
1'
#146860
13
1$
#210000
b10111111 "
b111111 "
b11111 "
b1111 "
b1101 "
b1100 "
0,
#210690
1K
#210832
0B
#210842
0F
#210850
0O
#210852
0Q
#210862
0;
#211827
0>
#214072
0G
#214080
1M
#214159
0D
#214213
0P
#214538
0S
#214815
03
0$
#216711
18
1)
#216716
05
0&
#216881
09
0*
#217034
06
0'
#217180
0:
0+
#270000
b100 "
0#
b0 "
1,
#270832
0H
#270850
0=
#270852
0K
#274241
0J
#274326
0M
#276963
08
0)
#277205
07
0(
