LAB03/LAB03/COD/simulation/qsim/COD.msim.vcd
$comment
	File created using the following command:
		vcd file COD.msim.vcd -direction
$end
$date
	Wed Apr 16 18:56:29 2025
$end
$version
	ModelSim Version 10.1d
$end
$timescale
	1ps
$end
$scope module COD_vlg_vec_tst $end
$var reg 8 ! D [7:0] $end
$var wire 1 " Q [2] $end
$var wire 1 # Q [1] $end
$var wire 1 $ Q [0] $end
$var wire 1 % V $end
$var wire 1 & sampler $end
$scope module i1 $end
$var wire 1 ' gnd $end
$var wire 1 ( vcc $end
$var wire 1 ) unknown $end
$var tri1 1 * devclrn $end
$var tri1 1 + devpor $end
$var tri1 1 , devoe $end
$var wire 1 - D[0]~input_o $end
$var wire 1 . V~output_o $end
$var wire 1 / Q[2]~output_o $end
$var wire 1 0 Q[1]~output_o $end
$var wire 1 1 Q[0]~output_o $end
$var wire 1 2 D[1]~input_o $end
$var wire 1 3 D[2]~input_o $end
$var wire 1 4 D[3]~input_o $end
$var wire 1 5 inst16~0_combout $end
$var wire 1 6 D[4]~input_o $end
$var wire 1 7 D[7]~input_o $end
$var wire 1 8 D[5]~input_o $end
$var wire 1 9 inst16~1_combout $end
$var wire 1 : inst16~combout $end
$var wire 1 ; inst14~0_combout $end
$var wire 1 < D[6]~input_o $end
$var wire 1 = inst14~1_combout $end
$var wire 1 > inst8~0_combout $end
$var wire 1 ? inst8~1_combout $end
$upscope $end
$upscope $end
$enddefinitions $end
#0
$dumpvars
b0 !
x$
x#
x"
x%
x&
0'
1(
x)
1*
1+
1,
0-
x.
x/
x0
x1
02
03
04
x5
06
07
08
x9
x:
x;
0<
x=
x>
x?
$end
#3297
0;
#3449
05
#3451
0>
#3774
19
#3911
0=
#4050
0?
#4091
0:
#6704
01
0$
#6780
0.
0%
#8317
00
0#
#8768
0/
0"
#50000
b1 !
0&
#50690
1-
#53811
15
#54319
1:
#56989
1.
1%
#110000
b10000001 !
b10000000 !
1&
#110670
17
#110852
0-
#113670
1=
1?
#113671
09
#114227
05
#116324
11
1$
#117982
10
1#
#118645
1/
1"
#170000
b0 !
0&
#170832
07
#174077
0=
#174080
0?
19
#174397
0:
#176734
01
0$
#177086
0.
0%
#178483
00
0#
#179074
0/
0"
